0,1,2,3
Seclion,Tracking nuimbe (if a,Aaior chanqe,Change Lype
2.2.1-5 Ipsec Exenpli,72916 Chanued M4 (ele,,Kccinecl UPLELE:
2.2.2.7 Jneilece:,Jeyu Uddauco heTelene,,Curileric Updele:
2.2.2.6 Tuetece,72917 Uudaled lhe tel,,Curterie UPOELE:
