table row 0.9838362336158752 32 123 536 135
table row 0.9957850575447083 33 184 535 196
table spanning cell 0.9540707468986511 187 30 535 44
table row 0.9941145777702332 32 71 536 84
table column 0.850831925868988 182 30 360 208
table row 0.9862778782844543 32 95 536 108
table row 0.9908695220947266 32 59 536 72
table row 0.9909241795539856 33 44 536 59
table row 0.9832421541213989 33 84 536 96
table column 0.9995540976524353 33 30 168 208
table row 0.9893962740898132 32 135 536 147
table row 0.9917166829109192 33 172 536 184
table row 0.9352633357048035 33 30 536 44
table column 0.9151214361190796 278 30 440 208
table column 0.9764378666877747 434 30 535 208
table row 0.9979798197746277 33 196 536 208
table column header 0.9392939805984497 33 30 536 59
table row 0.99543297290802 32 109 536 121
table row 0.9905710220336914 33 160 536 172
table row 0.9913799166679382 32 147 536 159
table 0.9999935626983643 32 30 536 208
