0,1,2,3,4,5,6,7,8
"Co""' UQn thue",Mi s6 thue Te,NNT,,Tieu muc,S6 da 6 tien ng thue ,nqp tir khda s6 S6 ti,Jn lqi n tqi S6 CCHL,D Ngay QL
Gra,Jld Total,,,,"3,726,502,467,022 16,","32,002,588 3,709,62","0,464,434",
0104,'293079 Tatal,,,,"4,634,505",,"4,634,505",
109 0I02,1293079,ng ty Co Phan Dau Tu ,,4918,"356,312",,"356,312 [5696",[27/07/2021
109 0104,293079,ng ty Co Phan Dau Tu ,,4272,"916,644",,"916,644 15696",27/07/2021
109 UIUC,'293079,ng ty Ci Phan Dau Tu ,,4931,"3,361,549",,"3,361,549 5696",27/07/202[
[0109,'170289 Total,,,,"5,150,087",,"5,150,087",
421 0I0S,'170289,)NG TY CO PHAN XUAT N,,1701,"5,150,087",,"5,150,087 8904",20/08/202[
0I0E 0106 01oE,403660 Total 403660,NG TY CO PHAN DAU TU ,,4944,"5,235,300 6,300",,"5,235,300 6,300 16221",6/06/2021
,,,,,,,,
0106 0I0E 0[06 0108,403660 '403660,'NG TY CO PHAN DAU TU,,4272 4254,"1,729,000 3,500,000",,"1,729,000 16221 3,500",16/06/202 | 16/06/202
,Sa c,,,,,,,
129 010€ 129 010C 129,125457-001 125457-00[,II NHANH CONG TY TRAC,,4931 4944 2864,"9,25o,[60 26,786 1,21",,"J,2so,io0 26,786 2677",25/14/2021 25/11/2021
(003 0103,1672437 Total 672437,ng Ty C Phan Quan Ly ,,4931,"5,362,304 1,817,580",,"5,362,304 1,817,580 6",12.01.2022
IIV_ 010z,10/245 / 600052 Total,ng IYCo Phan Quan LY ,,4943,"3,544,724 5.439 276",,"3,544,724 687 5 439 2",12.01.2022
,600052,NNG TY TNHH PHAT TRIE,,4918,6.050,,6 050 30896,01/09/202
,,,,,,,,
0102,600052,)NG TY TNHH PHAT TRIE,,4931,"300,682",,"300,682 30896",01/09/202
,-Ouuu)z 600052,JNU INHH PHAT TREN HK,,4944 4272,"4ou,2u0 I 010 430",,"460,200 30896 0io 420",[01/09/202 1 0ioona?i
,600052,TNHH PHAT TRIFN HKD V,,,66 01,,661 Z0006,J0o/2021
090,1053663 Total,,,,6 S0i,,5 fna 7oo,
1125 0o0,10s2662,WNGTV C PHAN THFP GNS,,Aqaa,,,177 La 2042,JNnA17noi
125 090,1053663,JNG TY CO PHANTHEP SU,,4272,4167 60,,D0tJ 167 60 2643,LunutLuri 0004/037
125 090 _ 010 08 0107,1053663,NNG TY CO PHAN THEP S,,4254,4 200 Ooo,,4 200 Ono 3642,20/o4na
,789877 Total,,,,6 C90,,,
,'789877,'NG TY TNHH XUAT NHAP,,4944,588.000,,588 OQQ 29182,30/09/2021
108 0103,7789877,)NG TY TNHH XUAT NHAP,,2863,2.000.000,,2 000 O0Q 29182,30/09n02
"1o8 010""",'789877,)NG TY TNHI XUAT NIIA,,2864,"J,uuu,uuu",,"3,000.0d0 29182",30/09/202
,1429634-h0),,,,,,,
