table row 0.9973215460777283 35 132 510 148
table row 0.9946040511131287 34 209 510 225
table spanning cell 0.9949250221252441 126 29 508 44
table row 0.9922498464584351 35 84 509 103
table column 0.9999855756759644 229 29 328 238
table row 0.9977745413780212 35 119 510 135
table row 0.9988163709640503 34 64 510 84
table row 0.9997829794883728 35 45 509 65
table row 0.9977017045021057 34 102 510 118
table column 0.9999450445175171 34 29 128 238
table row 0.9976205229759216 34 146 510 162
table row 0.9965080618858337 35 194 509 210
table spanning cell 0.9994716048240662 134 45 327 64
table row 0.9993568062782288 35 29 509 45
table column 0.999895453453064 330 29 427 238
table column 0.9997687935829163 427 29 508 238
table row 0.9991145730018616 35 224 511 238
table column header 0.9859225749969482 35 29 510 86
table projected row header 0.9968816041946411 34 84 509 103
table column 0.9996121525764465 132 29 229 238
table row 0.9992006421089172 35 178 510 194
table spanning cell 0.994848906993866 35 29 132 85
table projected row header 0.7384883165359497 34 209 511 224
table projected row header 0.6817865967750549 35 148 509 163
table spanning cell 0.9954804182052612 327 45 508 64
table row 0.9993999004364014 34 162 511 178
table 0.9999866485595703 34 29 510 238
