table row 0.9415948987007141 15 158 460 174
table row 0.8447974324226379 15 234 462 249
table row 0.8931906223297119 16 69 461 85
table row 0.8591485619544983 15 130 460 147
table row 0.960952639579773 15 143 460 159
table row 0.9696835279464722 15 100 460 116
table row 0.8685926198959351 15 53 462 70
table row 0.8524423241615295 16 39 459 56
table row 0.9037299752235413 16 86 460 102
table column 0.9878659844398499 15 28 153 259
table row 0.9730120301246643 15 174 460 190
table row 0.9346645474433899 15 219 460 236
table row 0.83649742603302 16 26 460 40
table column 0.9968728423118591 159 28 336 258
table column 0.9807177186012268 334 28 459 260
table column header 0.7185617685317993 15 26 462 41
table row 0.9199373722076416 15 116 460 135
table row 0.8960776925086975 15 204 459 220
table row 0.9394016861915588 16 188 460 204
table 0.9998785257339478 16 29 459 259
